{
     // Tasks.json apply to Universe Remote SSH (masterdev)
     // See https://go.microsoft.com/fwlink/?LinkId=733558 for the documentation about the tasks.json format
     // See https://wiki.infodata.lu/devtools/vscode/vsc4sbparagraph#vscode_tasksjson 

     "version": "2.0.0",
     "tasks": [
          {
               "label": "OE BASIC",
               "type": "process",
               "command": "ssh",
               "args": [
                    "${config:sbparagraph.account.server}",
                    {
                         "value": "cd ${config:sbparagraph.account.path}; uv 'BASIC ${relativeFileDirname} ${fileBasename}' ",
                         "quoting": "weak"
                    }
               ],
               "presentation": {
                    "echo": true,
                    "reveal": "always",
                    "focus": true,
                    "panel": "shared",
                    "showReuseMessage": false,
                    "clear": true
               },
               "group": {
                    "kind": "build"
               },
               "problemMatcher": []
          },
          {
               "label": "RUN BASIC ",
               "type": "process",
               "command": "ssh",
               "args": [
                    "${config:sbparagraph.account.server}",
                    {
                         "value": "cd ${config:sbparagraph.account.path}; uv 'RUN ${relativeFileDirname} ${fileBasename}' ",
                         "quoting": "weak"
                    }
               ],
               "presentation": {
                    "echo": true,
                    "reveal": "always",
                    "focus": false,
                    "panel": "shared",
                    "showReuseMessage": false,
                    "clear": true
               },
               "group": {
                    "kind": "build",
                    "isDefault": true
               },
               "problemMatcher": []
          },
          {
               "label": "CATALOG BASIC ",
               "type": "process",
               "command": "ssh",
               "args": [
                    "${config:sbparagraph.account.server}",
                    {
                         "value": "cd ${config:sbparagraph.account.path} ; uv 'CATALOG ${relativeFileDirname} ${fileBasename}' ",
                         "quoting": "weak"
                    }
               ],
               "presentation": {
                    "echo": true,
                    "reveal": "always",
                    "focus": false,
                    "panel": "shared",
                    "showReuseMessage": false,
                    "clear": true
               },
               "problemMatcher": []
          },
          {
               "label": "GC Process",
               "type": "process",
               "command": "ssh",
               "args": [
                    "${config:sbparagraph.account.server}",
                    {
                         "value": "cd ${config:sbparagraph.account.path} ; uv 'IN.VSC.GC SYSID ${config:sbparagraph.account.sysid} PROCESS ${fileBasename} SBUSER ${config:sbparagraph.credential.SB.UserId},${config:sbparagraph.credential.SB.UserPasswd}'",
                         "quoting": "weak"
                    }
               ],
               "presentation": {
                    "echo": true,
                    "reveal": "always",
                    "focus": false,
                    "panel": "shared",
                    "showReuseMessage": false,
                    "clear": true,
                    "revealProblems": "onProblem"
               },
               "problemMatcher": "$sbpGpVscGcRmtProblemMatcher",
               "group": {
                    "kind": "build"
               }
          }
     ]
}
